{
  "MONGO_DB_NAME": "transfer_db",
  "MONGO_USER": "transfer",
  "MONGO_HOSTS": [
    "banking-app-mongo-0.preprod.bankjago.io:3717",
    "banking-app-mongo-1.preprod.bankjago.io:3717"
  ],
  "coreBanking": {
    "baseURL": "https://bankjagotemp.sandbox.mambu.com/api",
    "auth": {
      "username": "jagoappclient"
    }
  },
  "ossPartnerReport": {
    "bucket": "preprod-banking-artos-partner-report"
  },
  "oss": {
    "bucket": "preprod-banking-artos-assets"
  },
  "logLevel": "debug",
  "abuseDetection": [
    {
      "paymentServiceCode": "IRIS_JAGO_TO_OTH",
      "maxUniqueDestinations": 5,
      "timeframe": 60,
      "cooldown": 24
    }
  ]
}